SIPP EDA
…
sipp_0719 |>
  group_by(hhid) |>
  filter(n_distinct(snap_hhid) > 1) |>
  arrange(hhid, snap_hhid) |>
  select(hhid, ERELRPE, snap_hhid) |>
  ungroup() |>
  slice_head(n = 50)

# A tibble: 50 × 3
   hhid             ERELRPE snap_hhid        
   <chr>              <int> <chr>            
 1 2850346461811          2 28503464618111   
 2 2850346461811         16 28503464618112   
 3 2920499955501811       2 29204999555018111
 4 2920499955501811      18 29204999555018112
 5 2921360681981811       1 29213606819818111
 6 2921360681981811       4 29213606819818111
 7 2921360681981811       7 29213606819818111
 8 2921360681981811      18 29213606819818112
 9 2921363345521811       1 29213633455218111
10 2921363345521811       7 29213633455218111
# ℹ 40 more rows
…
# Skim the variables to get a summary
library(skimr)

Warning: package 'skimr' was built under R version 4.5.2

vars_skimmed <- skimr::skim(microsim_vars) |>
  arrange(complete_rate)

# Examine the number missing and complete rate for each variable
vars_skimmed |>
  select(skim_variable, n_missing, complete_rate) |>
  print()

# A tibble: 33 × 3
   skim_variable n_missing complete_rate
   <chr>             <int>         <dbl>
 1 TAMOUNTPAID       48600        0.0128
 2 TPAYWK            47900        0.0270
 3 TVEH3VAL          38280        0.222 
 4 TMWKHRS           26951        0.453 
 5 TPEARN            26949        0.453 
 6 TVEH2VAL          21874        0.556 
 7 TVAL_AST           8556        0.826 
 8 TVAL_BANK          8556        0.826 
 9 TVAL_BOND          8556        0.826 
10 TVAL_BUS           8556        0.826 
# ℹ 23 more rows
…
For TPTOTINC (gross income), most households (over 15,000) are not missing anything, meaning that all individuals in the household reported income. Most households have 0% missing for TMDPAY (medical costs) as well.

Next we examine TPEARN (earnings) more closely:

microsim_vars |>
  group_by(snap_hhid) |>
  summarize(pct_missing = mean(is.na(TPEARN)) * 100) |>
  count(pct_missing)

# A tibble: 32 × 2
   pct_missing     n
         <dbl> <int>
 1         0    6279
 2        14.3     2
 3        16.7     5
 4        20      57
 5        25     291
 6        28.6     3
 7        33.3  1179
 8        37.5     2
 9        40     161
10        42.9    21
# ℹ 22 more rows
…
