SNAP Eligibility Microsimulation
…
Code

sipp_0719 |>
  group_by(hhid) |>
  filter(n_distinct(snap_hhid) > 1) |>
  arrange(hhid, snap_hhid) |>
  select(hhid, ERELRPE, snap_hhid) |>
  ungroup() |>
  slice_head(n = 50)

# A tibble: 50 × 3
   hhid             ERELRPE snap_hhid        
   <chr>              <int> <chr>            
 1 2850346461811          2 28503464618111   
 2 2850346461811         16 28503464618112   
 3 2920499955501811       2 29204999555018111
 4 2920499955501811      18 29204999555018112
 5 2921360681981811       1 29213606819818111
 6 2921360681981811       4 29213606819818111
 7 2921360681981811       7 29213606819818111
 8 2921360681981811      18 29213606819818112
 9 2921363345521811       1 29213633455218111
10 2921363345521811       7 29213633455218111
# ℹ 40 more rows
…
Code

state_results <- bind_rows(baseline_state, twohundred_state,
                           no_bbce_state, asset_elim_state, asset_10k_state,
                           work_waive_state, work_enforce_state, work_30hrs_state,
                           work_dep5_state, work_age65_state) |>
  group_by(state_fips) |>
  mutate(change_from_baseline = n_eligible_weighted - n_eligible_weighted[scenario == "Baseline"],
         pct_change = round(100 * change_from_baseline / n_eligible_weighted[scenario == "Baseline"],1)) |>
  ungroup() |>
  arrange(state_fips)

state_results

# A tibble: 510 × 7
   state_fips scenario         n_eligible_weighted n_total_weighted pct_eligible
        <int> <chr>                          <dbl>            <dbl>        <dbl>
 1          1 Baseline                     554787.         2129374.         26.1
 2          1 Gross limit 200…             554787.         2129374.         26.1
 3          1 Federal rules o…             378018.         2129374.         17.8
 4          1 Eliminate asset…             554787.         2129374.         26.1
 5          1 Raise asset lim…             554787.         2129374.         26.1
 6          1 Waive ABAWD nat…             639695.         2129374.         30  
 7          1 Enforce ABAWD n…             554787.         2129374.         26.1
 8          1 30-hour require…             540595.         2129374.         25.4
 9          1 Dep age cutoff 5             539809.         2129374.         25.4
10          1 ABAWD age 18-65              504942.         2129374.         23.7
# ℹ 500 more rows
# ℹ 2 more variables: change_from_baseline <dbl>, pct_change <dbl>
…
